Zooplankton CCA
…
# Crosswalk common names for sites to site_codes
zoop <- left_join(x = zoop, y = match_sites,
                               by = c("Lake" = "old_name"))

Grab yearly environmental dataquick check

bigjoin %>%
  filter(variable %in% c("secchi_value_m", "AirTemp", "BotTemp",
                         "MidTemp", "SurfTemp", "DO_top2m")) %>%
  select(park_code, site_code, event_year, start_date, ice_out_doy) %>%
  unique() %>%
  count(park_code, site_code, event_year, start_date) %>%
  arrange(desc(n))

## # A tibble: 257 x 5
##    park_code site_code event_year start_date     n
##    <chr>     <chr>          <dbl> <date>     <int>
##  1 MORA      LH14            2008 2008-08-26     1
##  2 MORA      LH14            2009 2009-08-10     1
##  3 MORA      LH14            2010 2010-08-11     1
##  4 MORA      LH14            2011 2011-08-30     1
##  5 MORA      LH14            2012 2012-08-20     1
##  6 MORA      LH14            2013 2013-08-13     1
##  7 MORA      LH14            2014 2014-08-18     1
##  8 MORA      LH14            2015 2015-08-10     1
##  9 MORA      LH14            2016 2016-08-15     1
## 10 MORA      LH14            2017 2017-08-14     1
## # ... with 247 more rows
…
Theres 114 rows in the yearly_bigjoin that dont match up with zoop data

zoop_env <- inner_join(x = zoop, y = yearly_bigjoin,
          by = c("site_code",
                 "Year" = "event_year")) %>%
  spread(key = variable, value = value)

Double check that theres not multiple measures/year (Spoiler: There are.)

zoop_env %>%
  count(park_code, site_code, Year, GenSp) %>%
  arrange(desc(n))

## # A tibble: 1,711 x 5
##    park_code site_code  Year GenSp                      n
##    <chr>     <chr>     <dbl> <chr>                  <int>
##  1 MORA      LW32       2018 Conochilius unicornis      2
##  2 MORA      LW32       2018 Daphnia rosea              2
##  3 MORA      LW32       2018 Hesperodiaptomus kenai     2
##  4 MORA      LW32       2018 immature Daphnia           2
##  5 MORA      LW32       2018 Kellicottia longispina     2
##  6 MORA      LW32       2018 Keratella cochlearis       2
##  7 MORA      LW32       2018 Keratella serrulata        2
##  8 MORA      LW32       2018 Keratella taurocephala     2
##  9 MORA      LW32       2018 Microcyclops varicans      2
## 10 MORA      LW32       2018 Philodina sp               2
## # ... with 1,701 more rows

Deadwood has multiple samples per zoop species per year? Im not clear as to why this is. Perhaps Im missing something. Going to sum them up for now.

zoop_env %>%
  filter(park_code == "MORA", site_code == "LW32", Year == "2018")

## # A tibble: 28 x 18
##    `Park&Year&Lake` Park   Year Lake   Code Density GenSp Taxa  Taxonid
##    <chr>            <chr> <dbl> <chr> <dbl>   <dbl> <chr> <chr>   <dbl>
##  1 MORA&2018&Deadw~ MORA   2018 Dead~    12   48.2  Daph~ CLAD        1
##  2 MORA&2018&Deadw~ MORA   2018 Dead~    12   19.3  Daph~ CLAD        1
##  3 MORA&2018&Deadw~ MORA   2018 Dead~    19   48.2  Poly~ CLAD        1
##  4 MORA&2018&Deadw~ MORA   2018 Dead~    19   77.2  Poly~ CLAD        1
##  5 MORA&2018&Deadw~ MORA   2018 Dead~    38   19.3  Micr~ COPE        2
##  6 MORA&2018&Deadw~ MORA   2018 Dead~    38    9.65 Micr~ COPE        2
##  7 MORA&2018&Deadw~ MORA   2018 Dead~    42    9.65 cala~ COPE        2
##  8 MORA&2018&Deadw~ MORA   2018 Dead~    43   19.3  Hesp~ COPE        2
##  9 MORA&2018&Deadw~ MORA   2018 Dead~    43    9.65 Hesp~ COPE        2
## 10 MORA&2018&Deadw~ MORA   2018 Dead~    51    9.65 naup~ COPE        2
## # ... with 18 more rows, and 9 more variables: site_code <chr>,
## #   park_code <chr>, ice_out_doy <int>, AirTemp <dbl>, BotTemp <dbl>,
## #   DO_top2m <dbl>, MidTemp <dbl>, secchi_value_m <dbl>, SurfTemp <dbl>
zoop_sum <- zoop %>%
  group_by(Park, Year, Lake, site_code, Code, Taxa, Taxonid, GenSp) %>%
  summarise(density = sum(Density))
  
zoop_env_sum <- inner_join(x = zoop_sum, y = yearly_bigjoin,
                       by = c("site_code",
                              "Year" = "event_year")) %>%
  spread(key = variable, value = value)

# Looks good:
zoop_env_sum %>%
  count(park_code, site_code, Year, GenSp) %>%
  arrange(desc(n))

## # A tibble: 1,711 x 10
## # Groups:   Park, Year, Lake, site_code, Code, Taxa, Taxonid [1,711]
##    Park   Year Lake  site_code  Code Taxa  Taxonid park_code GenSp        n
##    <chr> <dbl> <chr> <chr>     <dbl> <chr>   <dbl> <chr>     <chr>    <int>
##  1 MORA   2009 Allen LN03         12 CLAD        1 MORA      Daphnia~     1
##  2 MORA   2009 Allen LN03         28 CLAD        1 MORA      Pleurox~     1
##  3 MORA   2009 Allen LN03         32 COPE        2 MORA      cyclopo~     1
##  4 MORA   2009 Allen LN03         38 COPE        2 MORA      Microcy~     1
##  5 MORA   2009 Allen LN03         42 COPE        2 MORA      calanoi~     1
##  6 MORA   2009 Allen LN03         44 COPE        2 MORA      Hespero~     1
##  7 MORA   2009 Allen LN03         45 COPE        2 MORA      Hespero~     1
##  8 MORA   2009 Allen LN03         50 COPE        2 MORA      small s~     1
##  9 MORA   2009 Allen LN03         51 COPE        2 MORA      nauplii      1
## 10 MORA   2009 Allen LN03         61 ROT         5 MORA      Conochi~     1
## # ... with 1,701 more rows
…
zoop_env_sum_taxa <- inner_join(x = zoop_sum_taxa, y = yearly_bigjoin,
                           by = c("site_code",
                                  "Year" = "event_year")) %>%
  spread(key = variable, value = value)

# Looks good:
zoop_env_sum_taxa %>%
  count(park_code, site_code, Year, Taxa) %>%
  arrange(desc(n))

## # A tibble: 631 x 7
## # Groups:   Park, Year, Lake, site_code, Taxa [631]
##    Park   Year Lake     site_code Taxa  park_code     n
##    <chr> <dbl> <chr>    <chr>     <chr> <chr>     <int>
##  1 MORA   2009 Allen    LN03      CLAD  MORA          1
##  2 MORA   2009 Allen    LN03      COPE  MORA          1
##  3 MORA   2009 Allen    LN03      INS   MORA          1
##  4 MORA   2009 Allen    LN03      ROT   MORA          1
##  5 MORA   2009 Blue     LZ35      CLAD  MORA          1
##  6 MORA   2009 Blue     LZ35      COPE  MORA          1
##  7 MORA   2009 Blue     LZ35      ROT   MORA          1
##  8 MORA   2009 Deadwood LW32      CLAD  MORA          1
##  9 MORA   2009 Deadwood LW32      COPE  MORA          1
## 10 MORA   2009 Deadwood LW32      INS   MORA          1
## # ... with 621 more rows
…
physio <- left_join(x = physio, y = match_sites,
                               by = c("Lake" = "old_name"))

# Grab yearly data...quick check
bigjoin %>%
  filter(variable %in% c("AirTemp", "BotTemp", "MidTemp", "SurfTemp",
                         "Chlorophyll", "ice_in_doy", "ice_out_doy")) %>%
  select(park_code, site_code, event_year, start_date, ice_out_doy) %>%
  unique() %>%
  count(park_code, site_code, event_year, start_date) %>%
  arrange(desc(n))

## # A tibble: 384 x 5
##    park_code site_code event_year start_date     n
##    <chr>     <chr>          <dbl> <date>     <int>
##  1 MORA      LH14            2008 2008-08-26     1
##  2 MORA      LH14            2009 2009-08-10     1
##  3 MORA      LH14            2010 2010-08-11     1
##  4 MORA      LH14            2010 NA             1
##  5 MORA      LH14            2011 2011-08-30     1
##  6 MORA      LH14            2012 2012-08-20     1
##  7 MORA      LH14            2013 2013-08-13     1
##  8 MORA      LH14            2013 NA             1
##  9 MORA      LH14            2014 2014-08-18     1
## 10 MORA      LH14            2014 NA             1
## # ... with 374 more rows
…
