Macroinvert multivariate
…
full_macro <- inner_join(x = macro_counts, y = macro_lookup, by = c("Taxon"))

# summary(full_macro)

full_macro <- full_macro %>%
  filter(!is.na(Count))

Data broken down by order:

full_macro %>%
  group_by(Order) %>%
  summarize(total_counts = sum(Count)) %>%
  arrange(desc(total_counts))

## # A tibble: 23 x 2
##    Order         total_counts
##    <chr>                <dbl>
##  1 Diptera              46240
##  2 _Oligo                8934
##  3 Amphipoda             4804
##  4 Veneroida             4365
##  5 Ephemeroptera         3839
##  6 Coleoptera            3347
##  7 _Acari                2144
##  8 Trichoptera           1751
##  9 _Ostra                 898
## 10 _Ntoda                 690
## # ... with 13 more rows
…
