Sen’s regression trees
…
Load the necessary data

# All variables of interest from NPS
bigjoin <- readRDS(file = "../data/analysis_outputs/bigjoin.rds")

# Sen's slopes, calculated at lake level (i.e., not park-level mean)
sens_data <- read.csv(file = "../data/analysis_outputs/sens_slopes_na_rm_lakelvl.csv",
                      stringsAsFactors = FALSE)

Look at the data briefly:

as_tibble(bigjoin)

## # A tibble: 18,727 x 61
##    park_code site_code start_date event_year event_month variable   value Lake 
##    <chr>     <chr>     <date>          <dbl>       <dbl> <chr>      <dbl> <chr>
##  1 MORA      LH14      2008-08-26       2008           8 ANC      7.00e+1 Uppe~
##  2 MORA      LH14      2008-08-26       2008           8 Ca       1.38e+0 Uppe~
##  3 MORA      LH14      2008-08-26       2008           8 Chlorop~ 1.28e-1 Uppe~
##  4 MORA      LH14      2008-08-26       2008           8 Cl       3.49e-1 Uppe~
##  5 MORA      LH14      2008-08-26       2008           8 DOC      4.20e-1 Uppe~
##  6 MORA      LH14      2008-08-26       2008           8 K        1.27e-1 Uppe~
##  7 MORA      LH14      2008-08-26       2008           8 Mg       1.35e-1 Uppe~
##  8 MORA      LH14      2008-08-26       2008           8 Na       7.27e-1 Uppe~
##  9 MORA      LH14      2008-08-26       2008           8 NH3-N    2.00e-3 Uppe~
## 10 MORA      LH14      2008-08-26       2008           8 NH4-N    3.61e-2 Uppe~
## # ... with 18,717 more rows, and 53 more variables: Park <chr>,
## #   Elevation_m <dbl>, Aspect <chr>, Watershed_area_ha <dbl>,
## #   Surface_area_ha <dbl>, Volume_m3 <dbl>, Depth_max <dbl>,
## #   Depth_mean_m <dbl>, Depth_relative_prop <dbl>, Shoreline_length_m <dbl>,
## #   Lake_length_max_m <dbl>, Lake_width_max_m <dbl>,
## #   Watershed_area_to_lake_area_ratio <dbl>, Shoreline_development <dbl>,
## #   Index_of_basin_permanence <dbl>, Snowsite <chr>, BlueLineInlet <chr>,
## #   BlueLineOutlet <chr>, lon <dbl>, lat <dbl>, lon_utm <dbl>, lat_utm <dbl>,
## #   solar_jas <dbl>, solar_dec <dbl>, aspectns_lake <dbl>,
## #   northface_lake <dbl>, aspectns_wshed <dbl>, northface_wshed <dbl>,
## #   elevmean_wshed <dbl>, elevmax_wshed <dbl>, forest <dbl>, shrub <dbl>,
## #   meadow <dbl>, barren <dbl>, snowice <dbl>, ice_out_doy <int>,
## #   ice_in_doy <int>, SWE_May <dbl>, SWE_Apr <dbl>, SWE_May_snotel <dbl>,
## #   SWE_Apr_snotel <dbl>, salmo_adult_ever <dbl>, units <chr>,
## #   units_label <chr>, year <dbl>, park_site <chr>, variable_park_site <chr>,
## #   all <dbl>, flush_index_noSWE <dbl>, WRT_index_SWE_May <dbl>,
## #   WRT_index_SWE_Apr <dbl>, flush_index_SWE_May <dbl>,
## #   flush_index_SWE_Apr <dbl>

as_tibble(sens_data)

## # A tibble: 1,569 x 4
##    variable_name park  lake       slope
##    <chr>         <chr> <chr>      <dbl>
##  1 AirTemp       MORA  LH14     -0.0245
##  2 AirTemp       MORA  LH15      0.0126
##  3 AirTemp       MORA  LN03      0.132 
##  4 AirTemp       MORA  LP19      0.0423
##  5 AirTemp       MORA  LW32     -0.0374
##  6 AirTemp       MORA  LZ35     -0.142 
##  7 AirTemp       NOCA  LS-07-01  0.0574
##  8 AirTemp       NOCA  MA-03-01 -0.142 
##  9 AirTemp       NOCA  MC-03-01 -0.238 
## 10 AirTemp       NOCA  MC-14-02  0.190 
## # ... with 1,559 more rows
…
